﻿[
  {
    "FuelTypeId": 1,
    "FuelCategoryId": 1,
    "FuelCategory": "Electricity",
    "Name": "Electricity",
    "CarbonIntensity": 81.11,
    "EnergyDensity": null
  },
  {
    "FuelTypeId": 2,
    "FuelCategoryId": 2,
    "FuelCategory": "Upstream Emission Reductions (UERs)",
    "Name": "Upstream Emission Reductions (UERs)",
    "CarbonIntensity": null,
    "EnergyDensity": null
  },
  {
    "FuelTypeId": 3,
    "FuelCategoryId": 3,
    "FuelCategory": "Fossil Gas",
    "Name": "Liquid Petroleum Gas",
    "CarbonIntensity": 73.6,
    "EnergyDensity": 46.0
  },
  {
    "FuelTypeId": 4,
    "FuelCategoryId": 3,
    "FuelCategory": "Fossil Gas",
    "Name": "Compressed Natural Gas EU-Mix (in spark ignition engine)",
    "CarbonIntensity": 69.3,
    "EnergyDensity": 45.1
  },
  {
    "FuelTypeId": 5,
    "FuelCategoryId": 3,
    "FuelCategory": "Fossil Gas",
    "Name": "Liquefied Natural Gas EU-Mix (in spark ignition engine)",
    "CarbonIntensity": 74.5,
    "EnergyDensity": 45.1
  },
  {
    "FuelTypeId": 6,
    "FuelCategoryId": 3,
    "FuelCategory": "Fossil Gas",
    "Name": "Compressed Natural Gas Russia-Mix (in spark ignition engine)",
    "CarbonIntensity": 69.3,
    "EnergyDensity": 49.2
  },
  {
    "FuelTypeId": 7,
    "FuelCategoryId": 3,
    "FuelCategory": "Fossil Gas",
    "Name": "Liquefied Natural Gas Russia-Mix (in spark ignition engine)",
    "CarbonIntensity": 74.5,
    "EnergyDensity": 49.2
  },
  {
    "FuelTypeId": 8,
    "FuelCategoryId": 3,
    "FuelCategory": "Fossil Gas",
    "Name": "Hydrogen (Natural Gas use steam reforming)",
    "CarbonIntensity": 104.3,
    "EnergyDensity": 120.1
  },
  {
    "FuelTypeId": 9,
    "FuelCategoryId": 3,
    "FuelCategory": "Fossil Gas",
    "Name": "Hydrogen (from Coal without Carbon Capture)",
    "CarbonIntensity": 234.4,
    "EnergyDensity": 120.1
  },
  {
    "FuelTypeId": 10,
    "FuelCategoryId": 3,
    "FuelCategory": "Fossil Gas",
    "Name": "Hydrogen (from Coal with Carbon Capture)",
    "CarbonIntensity": 52.7,
    "EnergyDensity": 120.1
  },
  {
    "FuelTypeId": 11,
    "FuelCategoryId": 3,
    "FuelCategory": "Fossil Gas",
    "Name": "Hydrogen (Natural Gas use steam reforming) for use in a fuel cell",
    "CarbonIntensity": 41.72,
    "EnergyDensity": 120.1
  },
  {
    "FuelTypeId": 12,
    "FuelCategoryId": 3,
    "FuelCategory": "Fossil Gas",
    "Name": "Hydrogen (from Coal without Carbon Capture) for use in a fuel cell",
    "CarbonIntensity": 93.76,
    "EnergyDensity": 120.1
  },
  {
    "FuelTypeId": 13,
    "FuelCategoryId": 3,
    "FuelCategory": "Fossil Gas",
    "Name": "Hydrogen (from Coal with Carbon Capture) for use in a fuel cell",
    "CarbonIntensity": 21.08,
    "EnergyDensity": 120.1
  }

]