﻿[
  {
    "Id": 13,
    "StartDate": "2017-04-15 00:00:00.000",
    "EndDate": "2018-04-14 00:00:00.000",
    "IsActivated": 1,
    "LatestDateForApplicationsFromSupplier": "2018-08-14 00:00:00.000",
    "DeMinimisLitres": 450000,
    "NoDeMinimisLitres": 10000000,
    "LatestDateForRedemption": "2018-11-29 00:00:00.000",
    "LatestDateForRevocation": "2018-10-16 00:00:00.000",
    "LatestDateToNotifyRevocation": "2018-09-18 00:00:00.000",
    "GHGThresholdGrammesCO2PerMJ": 90.34,
    "GHGLowVolumeSupplierDeductionKGCO2": 59352,
    "GHGBuyoutPencePerKGCO2": 7.4
  },
  {
    "Id": 14,
    "StartDate": "2018-04-15 00:00:00.000",
    "EndDate": "2018-12-31 00:00:00.000",
    "IsActivated": 1,
    "LatestDateForApplicationsFromSupplier": "2019-05-14 00:00:00.000",
    "DeMinimisLitres": 450000,
    "NoDeMinimisLitres": 10000000,
    "LatestDateForRedemption": "2019-09-15 00:00:00.000",
    "LatestDateForRevocation": "2019-08-15 00:00:00.000",
    "LatestDateToNotifyRevocation": "2019-06-16 00:00:00.000",
    "GHGThresholdGrammesCO2PerMJ": 90.34,
    "GHGLowVolumeSupplierDeductionKGCO2": 59352,
    "GHGBuyoutPencePerKGCO2": 7.4
  },
  {
    "Id": 15,
    "StartDate": "2019-01-01 00:00:00.000",
    "EndDate": "2020-12-31 00:00:00.000",
    "IsActivated": 1,
    "LatestDateForApplicationsFromSupplier": "2021-05-14 00:00:00.000",
    "DeMinimisLitres": 450000,
    "NoDeMinimisLitres": 10000000,
    "LatestDateForRedemption": "2020-08-15 00:00:00.000",
    "LatestDateForRevocation": "2020-08-15 00:00:00.000",
    "LatestDateToNotifyRevocation": "2020-08-16 00:00:00.000",
    "GHGThresholdGrammesCO2PerMJ": 90.34,
    "GHGLowVolumeSupplierDeductionKGCO2": 59352,
    "GHGBuyoutPencePerKGCO2": 7.4
  }
]